@startuml
interface Esser {
+{abstract}accio(zoo : Zoo) : String
}
abstract class Animal {
+{abstract} mou(zoo : Zoo) : String
+{abstract} alimenta(zoo : Zoo) : String
+{abstract} expressa(zoo : Zoo) : String
+accio(zoo : Zoo) : String
}
class Zoo {
+mostraAnimal() : Animal
+afegeixAnimal(tipusAnimal : String)
+suprimeixAnimal(tipusAnimal : String)
+suprimeixAnimal(animal : Animal)
+suprimeixTots(tipusAnimal : String)
+mira()
}
class Vaca {
+mou(zoo : Zoo) : String
+alimenta(zoo : Zoo) : String
+expressa(zoo : Zoo) : String
}
class Cocodril {
+mou(zoo : Zoo) : String
+alimenta(zoo : Zoo) : String
+expressa(zoo : Zoo) : String
}
class Espectador {
+accio(zoo : Zoo) : String
}
class PrincipalZoo {
+main()
}
Animal ..|> Esser
Zoo "1" -> "0..*" Animal : animals
Zoo "1" --> "1" Espectador : espectador
Vaca --|> Animal
Cocodril --|> Animal
Espectador .|> Esser
PrincipalZoo "0..*" --> "1" Zoo : zoo

@enduml
