@startuml
participant Biblioteca as b
participant Cataleg as c
participant "llibre:Llibre" as l
participant "unExemplar:Exemplar" as e
participant "unLlibre:Llibre" as l2

[o-> b : altaLlibre(llibre)
activate b
b -> c : creaExemplar(llibre)
activate c
c -> l : getIsbn()
activate l
c <-- l : isbn
deactivate l
c -> c : cercaLlibre(isbn)
activate c
c -> e : getLlibre()
activate e
c <-- e : unLlibre
deactivate e
c -> l2 : getIsbn()
activate l2
c <-- l2 : unIsbn
deactivate l2
c <-- c : null
deactivate c
create "exemplar:Exemplar" as e2
c -->> e2 : crea
activate e2
c <-- e2
deactivate e2
b <-- c : exemplar
deactivate c
b -> c : altaExemplar(exemplar)
activate c
b <-- c
deactivate c
[<-- b
deactivate b
@enduml
