@startuml
class Persona {
+progenitors : Persona [0..2]
+fills : Persona [0..*]
}
@enduml

@startuml
class Persona{
+pares : Persona [0..2]
}

class RolProgenitor {
+fills : Persona [1..*]
+canviarBolquers()
}

Persona "1" --> "0..1" RolProgenitor : rol
note right of RolProgenitor
Aquest sistema és útil si la persona ha
de guanyar capacitats noves pel fet de
convertir-se en pare/mare.
end note
@enduml
